White light analysis of TEMP/tek0002ALL.csv

Model,DPO4104B
Firmware Version,1.38

Waveform Type,Analog,Analog,Analog,Analog
Point Format,Y,,,
Horizontal Units,s,,,
Horizontal Scale,4e-09,,,
Horizontal Delay,6.7e-08,6.7e-08,6.7e-08,6.7e-08
Sample Interval,2e-10,,,
Record Length,1000,,,
Gating,0.0% to 100.0%,0.0% to 100.0%,0.0% to 100.0%,0.0% to 100.0%
Probe Attenuation,1,1,1,1
Vertical Units,V,V,V,V
Vertical Offset,0,0,0,0
Vertical Scale,0.002,0.002,0.002,0.002
Vertical Position,-3.9,-3.94,-3.98,-4.04
Label,,,,
TIME,CH1,CH2,CH3,CH4
-3.300e-08,0.0002925,0.000492812,0.000157187,0.000655937
-3.280e-08,0.000282188,0.000489375,0.000142187,0.000654687
-3.260e-08,0.000292812,0.000498125,0.000128125,0.000655312
-3.240e-08,0.000298125,0.000498437,0.000120937,0.000663125
-3.220e-08,0.000295625,0.000491562,0.000119375,0.00064875
-3.200e-08,0.000295938,0.000503125,0.000123125,0.000643437
-3.180e-08,0.00030125,0.000513125,0.000135,0.000650937
-3.160e-08,0.000298125,0.00052375,0.000124687,0.00064375
-3.140e-08,0.000311875,0.000530937,0.000130937,0.000647812
-3.120e-08,0.000310312,0.000535312,0.000124687,0.000646562
-3.100e-08,0.00031625,0.000535625,0.000130937,0.000642813
-3.080e-08,0.000308437,0.000536875,0.000124375,0.00063875
-3.060e-08,0.000313437,0.000536875,0.000131562,0.000655
-3.040e-08,0.000299062,0.000542812,0.000117812,0.000657187
-3.020e-08,0.000299375,0.000538125,0.000114062,0.00065625
-3.000e-08,0.0002975,0.000541562,0.00010875,0.000670625
-2.980e-08,0.00029875,0.00053375,0.000102187,0.00066625
-2.960e-08,0.00029625,0.000534687,7.90625e-05,0.00067375
-2.940e-08,0.00029875,0.000521562,7.625e-05,0.000676563
-2.920e-08,0.000299062,0.00052375,6.21875e-05,0.000679375
-2.900e-08,0.00030375,0.00051125,6.3125e-05,0.0006875
-2.880e-08,0.000307812,0.000489062,5.09375e-05,0.000684062
-2.860e-08,0.000306562,0.00048,5.375e-05,0.000686562
-2.840e-08,0.00030375,0.00047875,5.5e-05,0.000681562
-2.820e-08,0.0003025,0.000465937,5.90625e-05,0.000687813
-2.800e-08,0.0003175,0.000470625,6e-05,0.000680625
-2.780e-08,0.000326562,0.00046625,9.03125e-05,0.000689375
-2.760e-08,0.000312187,0.000470312,8.71875e-05,0.000671562
-2.740e-08,0.000313125,0.000459687,0.00010625,0.000658438
-2.720e-08,0.00031125,0.000464687,0.0001125,0.00066125
-2.700e-08,0.000318438,0.000464375,0.000134375,0.000660625
-2.680e-08,0.00032375,0.000475,0.000152812,0.000665
-2.660e-08,0.000322187,0.000471562,0.000170312,0.000658125
-2.640e-08,0.000315,0.000481875,0.000173437,0.000651562
-2.620e-08,0.000305313,0.000479375,0.000181562,0.0006575
-2.600e-08,0.000309375,0.000491562,0.00017375,0.000664687
-2.580e-08,0.00031,0.000492812,0.00016875,0.000669062
-2.560e-08,0.000300937,0.000507812,0.00016875,0.000665
-2.540e-08,0.000299062,0.000510937,0.0001725,0.000667813
-2.520e-08,0.000286875,0.00051625,0.000159062,0.000659375
-2.500e-08,0.000296562,0.000513437,0.000153437,0.000667813
-2.480e-08,0.00029125,0.000524687,0.000124687,0.000659687
-2.460e-08,0.000289063,0.000515625,0.000110937,0.00064875
-2.440e-08,0.000287812,0.00052875,8.71875e-05,0.000648125
-2.420e-08,0.000302187,0.00054,8.21875e-05,0.000661875
-2.400e-08,0.000290312,0.000529375,6.375e-05,0.000650312
-2.380e-08,0.000286562,0.000519687,6.09375e-05,0.000644062
-2.360e-08,0.000290312,0.000525312,6.4375e-05,0.000651562
-2.340e-08,0.000285,0.000521562,7.03125e-05,0.00065
-2.320e-08,0.000275312,0.00052375,6.6875e-05,0.00064875
-2.300e-08,0.000289063,0.00051375,8.21875e-05,0.000647188
-2.280e-08,0.00029125,0.000517812,8.875e-05,0.00065
-2.260e-08,0.00029375,0.00053125,0.000101875,0.000656563
-2.240e-08,0.00029875,0.000518437,0.00010625,0.000658125
-2.220e-08,0.000299062,0.000516875,0.000114375,0.000650937
-2.200e-08,0.000299062,0.000530625,0.000125312,0.00065125
-2.180e-08,0.000295,0.000523437,0.000131562,0.000651562
-2.160e-08,0.0002925,0.000530937,0.000134062,0.00066875
-2.140e-08,0.000306875,0.000540312,0.000145312,0.000684687
-2.120e-08,0.00029125,0.000534062,0.000129375,0.000681875
-2.100e-08,0.000300937,0.000538125,0.000150312,0.000686562
-2.080e-08,0.000293438,0.000535937,0.000155,0.000687187
-2.060e-08,0.000313125,0.00053625,0.000156562,0.00068375
-2.040e-08,0.0003175,0.000539062,0.0001475,0.00068
-2.020e-08,0.00031125,0.0005275,0.000141562,0.000676563
-2.000e-08,0.000305,0.000524062,0.000134687,0.0006675
-1.980e-08,0.000310625,0.000517187,0.000144063,0.000660938
-1.960e-08,0.000304062,0.000529375,0.0001525,0.000673437
-1.940e-08,0.000296875,0.00052,0.000155312,0.000666562
-1.920e-08,0.0002925,0.000522187,0.0001525,0.000669688
-1.900e-08,0.000299062,0.000512812,0.000160937,0.000657812
-1.880e-08,0.00028625,0.000516875,0.000142187,0.000650625
-1.860e-08,0.000295938,0.000519687,0.000147187,0.000648437
-1.840e-08,0.000299687,0.00052,0.000144687,0.000642187
-1.820e-08,0.000297187,0.000512187,0.000135,0.000641562
-1.800e-08,0.000299375,0.000515312,0.000129687,0.000642813
-1.780e-08,0.000314063,0.000520937,0.000135937,0.000653125
-1.760e-08,0.00031,0.000529687,0.000128438,0.000653437
-1.740e-08,0.00031,0.000523125,0.000124375,0.000644687
-1.720e-08,0.000310625,0.000529062,0.000125,0.000650625
-1.700e-08,0.000315938,0.000517812,0.000134375,0.00066125
-1.680e-08,0.000315938,0.000510937,0.00011875,0.000667187
-1.660e-08,0.0003125,0.000504062,0.000115312,0.000671562
-1.640e-08,0.000305,0.000505937,0.00010125,0.000677812
-1.620e-08,0.000302187,0.000510312,0.000103437,0.000683125
-1.600e-08,0.000300313,0.000512812,0.000101562,0.0006875
-1.580e-08,0.000298438,0.000496875,0.000124375,0.000688125
-1.560e-08,0.000299687,0.000512187,0.000141875,0.000685313
-1.540e-08,0.000297187,0.000500625,0.000154687,0.000673125
-1.520e-08,0.000280313,0.000506562,0.000154375,0.000667187
-1.500e-08,0.000290312,0.000521875,0.000174375,0.000665937
-1.480e-08,0.000285625,0.00051625,0.000179687,0.000641875
-1.460e-08,0.000299062,0.00051375,0.00018625,0.000637812
-1.440e-08,0.000298438,0.000525312,0.000170625,0.000628437
-1.420e-08,0.000304375,0.000522812,0.000165312,0.000629375
-1.400e-08,0.000306875,0.000531875,0.00015625,0.000635625
-1.380e-08,0.000306562,0.000534062,0.00016875,0.000640625
-1.360e-08,0.00031125,0.00052625,0.00018125,0.000639375
-1.340e-08,0.000308437,0.000519375,0.000195625,0.000645313
-1.320e-08,0.00030375,0.000510312,0.000202187,0.00065625
-1.300e-08,0.000300937,0.000509375,0.000193437,0.000652812
-1.280e-08,0.000289375,0.000513125,0.00018625,0.000649688
-1.260e-08,0.000295312,0.000512812,0.000182812,0.000655625
-1.240e-08,0.000279375,0.000516562,0.00016,0.00065875
-1.220e-08,0.000295625,0.000517187,0.000154375,0.00066375
-1.200e-08,0.000286875,0.00052875,0.00013875,0.000656875
-1.180e-08,0.000281875,0.00052125,0.000133437,0.000647812
-1.160e-08,0.000285937,0.000534062,0.00013125,0.000638438
-1.140e-08,0.000297812,0.000540937,0.000135,0.000647812
-1.120e-08,0.000291563,0.00053875,0.0001275,0.000641562
-1.100e-08,0.000297187,0.000527812,0.000126875,0.0006375
-1.080e-08,0.000299687,0.000525625,0.00012125,0.000646875
-1.060e-08,0.000305625,0.000514375,0.000128125,0.00064
-1.040e-08,0.00030125,0.000509062,0.000129375,0.00064125
-1.020e-08,0.000305,0.000493125,0.000134375,0.000641562
-1.000e-08,0.000300625,0.00049625,0.00011875,0.000637187
-9.800e-09,0.000311563,0.000503437,0.000128125,0.0006425
-9.600e-09,0.000315,0.0005025,0.000119062,0.000641562
-9.400e-09,0.00030875,0.000504062,0.000123125,0.000647812
-9.200e-09,0.000303437,0.000505312,0.0001175,0.000651875
-9.000e-09,0.000310312,0.000491562,0.000124687,0.00065
-8.800e-09,0.00030375,0.000496875,0.000124687,0.00065875
-8.600e-09,0.000317187,0.000515937,0.000135,0.000666562
-8.400e-09,0.000310625,0.000505937,0.000129062,0.00067125
-8.200e-09,0.000312812,0.00051375,0.000136562,0.000686562
-8.000e-09,0.000310625,0.000525312,0.00013875,0.000687813
-7.800e-09,0.000314375,0.000531562,0.000149687,0.000680312
-7.600e-09,0.000312187,0.0005375,0.0001475,0.00068125
-7.400e-09,0.000309063,0.000531562,0.000146875,0.0006875
-7.200e-09,0.00031375,0.000536875,0.000133125,0.000694375
-7.000e-09,0.000308437,0.000535,0.00013625,0.000691875
-6.800e-09,0.000314375,0.000541562,0.000139062,0.000695625
-6.600e-09,0.00030875,0.000534375,0.000144687,0.00069625
-6.400e-09,0.0003,0.000536875,0.00013625,0.000700625
-6.200e-09,0.000306562,0.000542187,0.000131562,0.000692812
-6.000e-09,0.00029125,0.000545,0.000120625,0.000689688
-5.800e-09,0.000298125,0.000549375,0.000116875,0.000694687
-5.600e-09,0.000288437,0.000552187,0.000100937,0.0006975
-5.400e-09,0.000289688,0.000546875,8.59375e-05,0.00069375
-5.200e-09,0.000285312,0.00055,6.375e-05,0.000698125
-5.000e-09,0.000306875,0.000544375,7.375e-05,0.0006925
-4.800e-09,0.000294063,0.000538437,6.6875e-05,0.0006825
-4.600e-09,0.000285937,0.00052625,7.5e-05,0.000686562
-4.400e-09,0.000278438,0.00052875,8.71875e-05,0.000695
-4.200e-09,0.000289688,0.0005125,0.0001075,0.000698437
-4.000e-09,0.000289063,0.000507812,0.0001125,0.000697187
-3.800e-09,0.000291563,0.000496875,0.000112813,0.000684375
-3.600e-09,0.0002925,0.000501875,0.000119062,0.000684375
-3.400e-09,0.00029,0.00049875,0.0001275,0.000690312
-3.200e-09,0.000304062,0.000500625,0.00011875,0.000684687
-3.000e-09,0.000304062,0.000492187,0.00013125,0.000680625
-2.800e-09,0.000300313,0.000507187,0.000122812,0.000673125
-2.600e-09,0.000290312,0.000502812,0.000129375,0.000665625
-2.400e-09,0.000289375,0.000516562,0.00013125,0.000668125
-2.200e-09,0.000299062,0.000519375,0.000141562,0.000671562
-2.000e-09,0.00027875,0.000504375,0.000115625,0.000656563
-1.800e-09,0.00028,0.00050375,0.000120937,0.000657187
-1.600e-09,0.00027875,0.000505937,0.00012875,0.000654063
-1.400e-09,0.000285312,0.000505,0.000154062,0.000664375
-1.200e-09,0.00028,0.000502812,0.00015875,0.00066625
-1.000e-09,0.000281875,0.000497812,0.000160625,0.00065625
-8.000e-10,0.00028,0.0005025,0.000166875,0.000652812
-6.000e-10,0.000281875,0.0004925,0.000182187,0.000658438
-4.000e-10,0.00028375,0.000507187,0.000188125,0.00066
-2.000e-10,0.00029125,0.000505,0.000181562,0.000645
-0.000e+00,0.000286875,0.000506875,0.000172187,0.000645313
2.000e-10,0.000290937,0.000509062,0.000174687,0.000651875
4.000e-10,0.00028,0.00051,0.0001725,0.000657812
6.000e-10,0.000292187,0.000504687,0.000189687,0.00067125
8.000e-10,0.00028625,0.000511562,0.000204062,0.0006775
1.000e-09,0.0002925,0.00050125,0.000220312,0.000682187
1.200e-09,0.000298125,0.000510625,0.00022875,0.000683125
1.400e-09,0.000307812,0.000520312,0.000230312,0.000695
1.600e-09,0.000305625,0.000526562,0.00022375,0.000694062
1.800e-09,0.000302187,0.000516562,0.000222812,0.00071625
2.000e-09,0.000310312,0.000524062,0.00021375,0.000740312
2.200e-09,0.000309375,0.000522812,0.000203125,0.00076625
2.400e-09,0.000314687,0.000527187,0.000178437,0.00078125
2.600e-09,0.000324062,0.000523125,0.000160937,0.000733125
2.800e-09,0.000331875,0.0005325,0.000148125,0.00067
3.000e-09,0.000354375,0.000537812,0.000164062,0.00063375
3.200e-09,0.000379687,0.0005975,0.000235937,0.000660312
3.400e-09,0.000486875,0.00072,0.000440937,0.0007575
3.600e-09,0.00075375,0.00105687,0.0009625,0.00099375
3.800e-09,0.00145188,0.00187969,0.00235375,0.00155906
4.000e-09,0.00328969,0.00406469,0.00597938,0.00305906
4.200e-09,0.00793406,0.00972281,0.0137741,0.00712031
4.400e-09,0.0161122,0.0170666,0.0179663,0.0154403
4.600e-09,0.0179203,0.017995,0.0180803,0.0181194
4.800e-09,0.0179212,0.0180012,0.0180813,0.0182013
5.000e-09,0.0179209,0.0180009,0.0180809,0.0182009
5.200e-09,0.01792,0.018,0.01808,0.0182
5.400e-09,0.0179238,0.0180037,0.0180838,0.0182038
5.600e-09,0.0179216,0.0180016,0.0180816,0.0182016
5.800e-09,0.0179222,0.0180022,0.0180822,0.0182022
6.000e-09,0.0179206,0.0180006,0.0180806,0.0182006
6.200e-09,0.01792,0.018,0.01808,0.0182
6.400e-09,0.0179212,0.0180012,0.0180813,0.0182013
6.600e-09,0.0179203,0.0180003,0.0180803,0.0182003
6.800e-09,0.0179209,0.0180009,0.0180809,0.0182009
7.000e-09,0.01792,0.018,0.01808,0.0182
7.200e-09,0.0179203,0.0180003,0.0180803,0.0182003
7.400e-09,0.0179203,0.0180003,0.0180803,0.0182003
7.600e-09,0.01792,0.018,0.01808,0.0182
7.800e-09,0.0179209,0.0180009,0.0180809,0.0182009
8.000e-09,0.0179238,0.0180037,0.0180838,0.0182038
8.200e-09,0.0179203,0.0180003,0.0180803,0.0182003
8.400e-09,0.0179209,0.0180009,0.0180809,0.0182009
8.600e-09,0.0179203,0.0180003,0.0180803,0.0182003
8.800e-09,0.0179203,0.0180003,0.0180803,0.0182003
9.000e-09,0.0179209,0.0180009,0.0180809,0.0182009
9.200e-09,0.0179231,0.0180031,0.0180831,0.0182031
9.400e-09,0.0179238,0.0180037,0.0180563,0.0182038
9.600e-09,0.0179206,0.0180006,0.0179028,0.018165
9.800e-09,0.0178388,0.0180019,0.0159484,0.0181141
1.000e-08,0.0166888,0.0180003,0.0115322,0.0181163
1.020e-08,0.00947469,0.0180012,0.00705375,0.0181709
1.040e-08,0.00234375,0.0180006,0.004065,0.0181987
1.060e-08,-0.000427813,0.0180009,0.00214094,0.0182009
1.080e-08,-0.0011975,0.0180022,0.000725312,0.0181966
1.100e-08,-0.00133437,0.0179181,-0.000196875,0.0181134
1.120e-08,-0.0011725,0.0174509,-0.000705313,0.0174438
1.140e-08,-0.000778125,0.0136213,-0.000715,0.0137828
1.160e-08,0.000110625,0.00654094,1.96875e-05,0.00698531
1.180e-08,0.00204531,0.00163469,0.0024825,0.00163656
1.200e-08,0.00613594,6.59375e-05,0.00793938,-0.000966875
1.220e-08,0.0124434,0.000230937,0.0146791,-0.00176688
1.240e-08,0.0172659,0.00187656,0.0178119,-0.00176719
1.260e-08,0.0178578,0.00544781,0.0180231,-0.000766562
1.280e-08,0.0179212,0.0105009,0.0180813,0.00214281
1.300e-08,0.0179203,0.0149994,0.0180803,0.00677469
1.320e-08,0.0179209,0.0173791,0.0180809,0.0116903
1.340e-08,0.01792,0.0179122,0.01808,0.0155475
1.360e-08,0.0179203,0.0179369,0.0180803,0.0174909
1.380e-08,0.0179203,0.018,0.0180803,0.0180247
1.400e-08,0.01792,0.018,0.01808,0.0179528
1.420e-08,0.0179209,0.0179956,0.0180747,0.0176322
1.440e-08,0.0179238,0.0179188,0.018,0.0168234
1.460e-08,0.0178394,0.0179059,0.0178134,0.0152259
1.480e-08,0.0169169,0.0177656,0.0160125,0.0125869
1.500e-08,0.00955844,0.0172884,0.0116691,0.00930344
1.520e-08,0.000555313,0.0162634,0.00652563,0.00583781
1.540e-08,-0.00220219,0.014805,0.00309812,0.00261906
1.560e-08,-0.00238938,0.0132075,0.00160437,0.000345313
1.580e-08,-0.00239625,0.0118447,0.00124062,-0.0007975
1.600e-08,-0.00239937,0.0109297,0.00164062,-0.00117562
1.620e-08,-0.00239813,0.0106647,0.00281375,-0.00107938
1.640e-08,-0.00239969,0.0110762,0.0049825,-0.00035625
1.660e-08,-0.00237656,0.0120488,0.00819656,0.00155688
1.680e-08,-0.00204281,0.01336,0.0118466,0.00452656
1.700e-08,-0.000142812,0.0146647,0.01506,0.00753031
1.720e-08,0.00597438,0.0156672,0.0170066,0.00989719
1.740e-08,0.0132697,0.0162853,0.0177941,0.0112675
1.760e-08,0.0174469,0.0164891,0.0179809,0.0115019
1.780e-08,0.0178394,0.0163375,0.0179981,0.0107338
1.800e-08,0.01792,0.01568,0.0179997,0.00922969
1.820e-08,0.0179238,0.0141844,0.0179934,0.00716
1.840e-08,0.0179216,0.0115288,0.0179828,0.00468312
1.860e-08,0.0179206,0.00786969,0.0179363,0.00186063
1.880e-08,0.01784,0.00384906,0.0176481,-0.000637812
1.900e-08,0.01782,0.000523125,0.0168009,-0.00178781
1.920e-08,0.0176278,-0.00122531,0.0144009,-0.00207313
1.940e-08,0.0169734,-0.00183813,0.0102063,-0.00209844
1.960e-08,0.0138863,-0.00202219,0.00534156,-0.0021075
1.980e-08,0.00803469,-0.00198063,0.00132406,-0.00210281
2.000e-08,0.00205281,-0.00165031,-0.000904375,-0.00208906
2.020e-08,-0.0018825,-0.000923125,-0.00174031,-0.00204594
2.040e-08,-0.00239062,0.00033125,-0.00204313,-0.00192906
2.060e-08,-0.00239906,0.00186562,-0.00215969,-0.00169688
2.080e-08,-0.00239625,0.00316375,-0.00216188,-0.00131281
2.100e-08,-0.00239969,0.00391219,-0.00208375,-0.00056
2.120e-08,-0.00239906,0.00401094,-0.00191906,0.000494062
2.140e-08,-0.00239969,0.00356594,-0.00143063,0.00152469
2.160e-08,-0.0023925,0.00284594,-0.000316875,0.00241469
2.180e-08,-0.00234562,0.00205312,0.00178781,0.00312719
2.200e-08,-0.00200875,0.00146156,0.00498375,0.00360719
2.220e-08,-0.00123094,0.00117562,0.00854031,0.0037475
2.240e-08,0.00129406,0.00118812,0.0117594,0.00333156
2.260e-08,0.00529875,0.00137844,0.0143222,0.0022575
2.280e-08,0.00944875,0.00159969,0.0160156,0.000581562
2.300e-08,0.0135003,0.00166656,0.0168166,-0.0011325
2.320e-08,0.0167153,0.00146469,0.0169659,-0.00190688
2.340e-08,0.0177538,0.000922187,0.0165269,-0.00206406
2.360e-08,0.0177881,0.000145,0.0153141,-0.00210156
2.380e-08,0.0177806,-0.000577188,0.01324,-0.00210156
2.400e-08,0.0176284,-0.0010675,0.0102116,-0.00209844
2.420e-08,0.0173156,-0.00129594,0.00667563,-0.00208375
2.440e-08,0.0166009,-0.00122375,0.003145,-0.00192906
2.460e-08,0.0135525,-0.000811563,0.000240312,-0.00087875
2.480e-08,0.00820531,0.000285312,-0.00137688,0.00145437
2.500e-08,0.00262062,0.00195531,-0.00199406,0.00378313
2.520e-08,-0.00165469,0.00357531,-0.00218656,0.005525
2.540e-08,-0.00239937,0.00469031,-0.00222031,0.00645031
2.560e-08,-0.00239875,0.00506781,-0.00222406,0.00642969
2.580e-08,-0.00239969,0.0046325,-0.00222688,0.00552906
2.600e-08,-0.00239906,0.0035425,-0.00222125,0.00401938
2.620e-08,-0.0024,0.00207281,-0.00220438,0.00236812
2.640e-08,-0.00239969,0.000542812,-0.00209125,0.0009275
2.660e-08,-0.00239969,-0.000634063,-0.00185344,-3.84375e-05
2.680e-08,-0.00239,-0.00118844,-0.00087625,-0.000405
2.700e-08,-0.00219438,-0.00132781,0.001695,-0.000213438
2.720e-08,-0.00154844,-0.00111125,0.00550531,0.0003775
2.740e-08,0.000978438,-0.000271875,0.00945188,0.00116125
2.760e-08,0.00482938,0.00138344,0.0129875,0.0020075
2.780e-08,0.00850063,0.00338156,0.0155791,0.00278688
2.800e-08,0.0117069,0.00540437,0.0169391,0.00344812
2.820e-08,0.0142228,0.00709156,0.0172909,0.00402125
2.840e-08,0.01579,0.00825719,0.0168147,0.00450188
2.860e-08,0.0163659,0.00879469,0.015205,0.00493219
2.880e-08,0.0160062,0.00882906,0.0121072,0.005335
2.900e-08,0.0148375,0.008435,0.00802938,0.00567063
2.920e-08,0.0128647,0.00782062,0.00359406,0.00584844
2.940e-08,0.0103103,0.00717594,-0.00024125,0.00583531
2.960e-08,0.00744188,0.00656094,-0.00178938,0.0055975
2.980e-08,0.00457562,0.00600187,-0.00216812,0.00506781
3.000e-08,0.00191562,0.00545531,-0.0022275,0.00421875
3.020e-08,-0.000351563,0.00488687,-0.00223563,0.00321594
3.040e-08,-0.00190125,0.00428094,-0.00223594,0.00225063
3.060e-08,-0.00236531,0.00358656,-0.00223375,0.00150437
3.080e-08,-0.00239594,0.00283969,-0.00222563,0.0011325
3.100e-08,-0.00239594,0.00211625,-0.00221406,0.00122031
3.120e-08,-0.00239188,0.0015375,-0.00217563,0.0017475
3.140e-08,-0.00239469,0.00122062,-0.00191219,0.00257438
3.160e-08,-0.00237156,0.00135281,-0.00112625,0.00357094
3.180e-08,-0.00233781,0.00189969,0.00082625,0.0045725
3.200e-08,-0.00219281,0.00282375,0.00336281,0.00548656
3.220e-08,-0.00201719,0.00388094,0.0056925,0.00619938
3.240e-08,-0.00170531,0.00487156,0.00760281,0.00659313
3.260e-08,-0.000555,0.00561531,0.00907625,0.00659219
3.280e-08,0.00170344,0.0059575,0.0100156,0.0061625
3.300e-08,0.00407281,0.00582656,0.01048,0.00532156
3.320e-08,0.00622313,0.00528,0.0104378,0.004155
3.340e-08,0.00806406,0.00438031,0.00993344,0.00282
3.360e-08,0.00940625,0.00328687,0.00906062,0.00148313
3.380e-08,0.0101997,0.00220656,0.00788063,0.000332812
3.400e-08,0.0103238,0.00132312,0.00646688,-0.000559063
3.420e-08,0.009855,0.000790312,0.00487906,-0.0011275
3.440e-08,0.00882031,0.00069875,0.00309844,-0.00137969
3.460e-08,0.00729156,0.001,0.00117094,-0.00143813
3.480e-08,0.00542688,0.00162594,-0.000638125,-0.00140719
3.500e-08,0.00338625,0.00237844,-0.00160906,-0.00125875
3.520e-08,0.00134219,0.00303937,-0.00203563,-0.000951563
3.540e-08,-0.000520937,0.00341562,-0.00218844,-0.000435312
3.560e-08,-0.00188031,0.0034075,-0.00221438,0.0003275
3.580e-08,-0.00235,0.0030275,-0.00223406,0.00128031
3.600e-08,-0.00237781,0.00237875,-0.00223375,0.0022625
3.620e-08,-0.00234281,0.00155062,-0.00221656,0.00307062
3.640e-08,-0.00220875,0.000699687,-0.00221875,0.0035175
3.660e-08,-0.00195125,-6.625e-05,-0.00206969,0.00355188
3.680e-08,-0.00156563,-0.000695,-0.00160125,0.00312406
3.700e-08,-0.000950937,-0.00113156,0.000109687,0.00228969
3.720e-08,-0.000113125,-0.00141938,0.00286656,0.00110406
3.740e-08,0.000832813,-0.00162313,0.00547469,-0.000303437
3.760e-08,0.00166594,-0.00175594,0.00763594,-0.001565
3.780e-08,0.00231344,-0.00184875,0.00922,-0.00204812
3.800e-08,0.00277437,-0.00196,0.0101319,-0.002095
