Attenuation EXP without ambient light/tek0028ALL.csv

Model,DPO4104B
Firmware Version,1.38

Waveform Type,Analog,Analog,Analog,Analog
Point Format,Y,,,
Horizontal Units,s,,,
Horizontal Scale,4e-09,,,
Horizontal Delay,1.6e-09,1.6e-09,1.6e-09,1.6e-09
Sample Interval,2e-10,,,
Record Length,10000,,,
Gating,0.0% to 100.0%,0.0% to 100.0%,0.0% to 100.0%,0.0% to 100.0%
Probe Attenuation,1,1,1,1
Vertical Units,V,V,V,V
Vertical Offset,0,0,0,0
Vertical Scale,0.1,0.1,0.1,0.1
Vertical Position,-3.56,-3.5,-3.54,-3.66
Label,,,,
TIME,CH1,CH2,CH3,CH4
-9.9840e-07,-0.00690625,-0.010625,-0.00870313,0.00178125
-9.9820e-07,-0.00698438,-0.01075,-0.00854688,0.00154688
-9.9800e-07,-0.0065625,-0.0104531,-0.00848438,0.0015
-9.9780e-07,-0.00642188,-0.0105312,-0.00834375,0.0013125
-9.9760e-07,-0.00659375,-0.0105781,-0.00857813,0.00132812
-9.9740e-07,-0.00703125,-0.0105469,-0.0091875,0.001625
-9.9720e-07,-0.0066875,-0.0104375,-0.00896875,0.00160937
-9.9700e-07,-0.00684375,-0.0102656,-0.0090625,0.00190625
-9.9680e-07,-0.00673438,-0.0106562,-0.008625,0.00164063
-9.9660e-07,-0.0069375,-0.0106094,-0.0084375,0.00128125
-9.9640e-07,-0.00715625,-0.0106875,-0.00884375,0.00145312
-9.9620e-07,-0.0070625,-0.0104219,-0.00879688,0.00146875
-9.9600e-07,-0.00640625,-0.00996875,-0.00834375,0.00196875
-9.9580e-07,-0.00692188,-0.0102656,-0.0089375,0.00151562
-9.9560e-07,-0.00732813,-0.0106406,-0.00875,0.00151562
-9.9540e-07,-0.00689063,-0.0106406,-0.00879688,0.00159375
-9.9520e-07,-0.00676562,-0.0104687,-0.00876562,0.001625
-9.9500e-07,-0.00692188,-0.0108281,-0.00851563,0.00125
-9.9480e-07,-0.00653125,-0.0107656,-0.00839063,0.00117187
-9.9460e-07,-0.00690625,-0.0105625,-0.00885938,0.00164063
-9.9440e-07,-0.00692188,-0.0102812,-0.0085,0.00171875
-9.9420e-07,-0.00673438,-0.0102812,-0.00848438,0.00146875
-9.9400e-07,-0.007,-0.0107812,-0.00867188,0.00129687
-9.9380e-07,-0.0070625,-0.0105625,-0.00903125,0.001625
-9.9360e-07,-0.00695313,-0.0104531,-0.00896875,0.0013125
-9.9340e-07,-0.00679688,-0.0108125,-0.00873438,0.00104688
-9.9320e-07,-0.006625,-0.0100312,-0.00853125,0.002
-9.9300e-07,-0.00714063,-0.0108125,-0.00882813,0.00103125
-9.9280e-07,-0.00726562,-0.0106406,-0.00857813,0.0011875
-9.9260e-07,-0.00696875,-0.0107031,-0.00885938,0.00132812
-9.9240e-07,-0.00670313,-0.0105,-0.0084375,0.00151562
-9.9220e-07,-0.0065625,-0.0104687,-0.0085625,0.00170312
-9.9200e-07,-0.00678125,-0.0105937,-0.00904688,0.00184375
-9.9180e-07,-0.00698438,-0.0107187,-0.00904688,0.00135937
-9.9160e-07,-0.00664063,-0.0106562,-0.00875,0.00140625
-9.9140e-07,-0.00654688,-0.0104062,-0.00845313,0.00132812
-9.9120e-07,-0.00665625,-0.0106875,-0.00854688,0.00129687
-9.9100e-07,-0.0070625,-0.010375,-0.00901563,0.0015625
-9.9080e-07,-0.006875,-0.0101562,-0.00834375,0.0018125
-9.9060e-07,-0.00695313,-0.01025,-0.00895313,0.00170312
-9.9040e-07,-0.00665625,-0.0105625,-0.0085,0.00132812
-9.9020e-07,-0.00692188,-0.0104375,-0.00878125,0.00123438
-9.9000e-07,-0.00704688,-0.0107656,-0.00885938,0.00128125
-9.8980e-07,-0.006875,-0.0107187,-0.00915625,0.00157812
-9.8960e-07,-0.0064375,-0.00978125,-0.0085,0.00225
-9.8940e-07,-0.00695313,-0.0102031,-0.00875,0.00189062
-9.8920e-07,-0.00721875,-0.0106562,-0.0088125,0.00153125
-9.8900e-07,-0.0068125,-0.0107187,-0.00885938,0.00175
-9.8880e-07,-0.007125,-0.0103281,-0.00885938,0.00164063
-9.8860e-07,-0.00660938,-0.01075,-0.00842188,0.00107812
-9.8840e-07,-0.00664063,-0.010625,-0.008375,0.000984375
-9.8820e-07,-0.00685938,-0.0105781,-0.00851563,0.001375
-9.8800e-07,-0.007,-0.01025,-0.00870313,0.00173438
-9.8780e-07,-0.00678125,-0.0102969,-0.00873438,0.00135937
-9.8760e-07,-0.0070625,-0.0106562,-0.00895313,0.001125
-9.8740e-07,-0.00707813,-0.010125,-0.00876562,0.00145312
-9.8720e-07,-0.00698438,-0.0107031,-0.00867188,0.0015
-9.8700e-07,-0.007,-0.0107656,-0.00871875,0.00120312
-9.8680e-07,-0.00664063,-0.01025,-0.00832813,0.00234375
-9.8660e-07,-0.007125,-0.0110469,-0.00903125,0.00142187
-9.8640e-07,-0.0069375,-0.0106406,-0.008625,0.00139062
-9.8620e-07,-0.00671875,-0.0108906,-0.00873438,0.00125
-9.8600e-07,-0.00653125,-0.0105937,-0.00821875,0.00135937
-9.8580e-07,-0.00659375,-0.0102187,-0.0085625,0.00139062
-9.8560e-07,-0.00684375,-0.0103125,-0.00878125,0.00148437
-9.8540e-07,-0.0066875,-0.0105,-0.00884375,0.00135937
-9.8520e-07,-0.0066875,-0.0103906,-0.0085625,0.00170312
-9.8500e-07,-0.0065,-0.0103125,-0.00834375,0.00184375
-9.8480e-07,-0.00695313,-0.0105469,-0.00842188,0.00126562
-9.8460e-07,-0.00717188,-0.0102969,-0.00901563,0.0014375
-9.8440e-07,-0.00660938,-0.0103437,-0.00848438,0.00167187
-9.8420e-07,-0.00709375,-0.0102656,-0.00895313,0.00173438
-9.8400e-07,-0.00678125,-0.010625,-0.00842188,0.00148437
-9.8380e-07,-0.00725,-0.0103594,-0.00882813,0.00125
-9.8360e-07,-0.00717188,-0.0105781,-0.00864063,0.00123438
-9.8340e-07,-0.00698438,-0.0105312,-0.00873438,0.00134375
-9.8320e-07,-0.0064375,-0.0100937,-0.00828125,0.00209375
-9.8300e-07,-0.00685938,-0.0101562,-0.0090625,0.002
-9.8280e-07,-0.00725,-0.0105937,-0.00932813,0.0014375
-9.8260e-07,-0.0068125,-0.010375,-0.00867188,0.0014375
-9.8240e-07,-0.00703125,-0.0104062,-0.00890625,0.00139062
-9.8220e-07,-0.00676562,-0.0105937,-0.0089375,0.001125
-9.8200e-07,-0.00648438,-0.0108594,-0.00845313,0.00123438
-9.8180e-07,-0.00675,-0.0105625,-0.00884375,0.00135937
-9.8160e-07,-0.006875,-0.0104219,-0.008875,0.00173438
-9.8140e-07,-0.00654688,-0.0101875,-0.00845313,0.00185937
-9.8120e-07,-0.00690625,-0.0106719,-0.00876562,0.00110937
-9.8100e-07,-0.00689063,-0.01025,-0.00865625,0.00134375
-9.8080e-07,-0.00732813,-0.0104844,-0.008875,0.00120312
-9.8060e-07,-0.00684375,-0.0104062,-0.00882813,0.00110937
-9.8040e-07,-0.00675,-0.00976562,-0.00860938,0.001875
-9.8020e-07,-0.00703125,-0.010625,-0.00885938,0.00110937
-9.8000e-07,-0.00690625,-0.010625,-0.008625,0.00134375
-9.7980e-07,-0.006625,-0.0106094,-0.00870313,0.00117187
-9.7960e-07,-0.00659375,-0.0104375,-0.00840625,0.0014375
-9.7940e-07,-0.006375,-0.0105312,-0.00854688,0.0018125
-9.7920e-07,-0.00690625,-0.0104375,-0.00882813,0.001875
-9.7900e-07,-0.006875,-0.0107812,-0.00867188,0.00159375
-9.7880e-07,-0.00682813,-0.0105937,-0.00864063,0.00185937
-9.7860e-07,-0.00642188,-0.0104687,-0.00848438,0.00173438
-9.7840e-07,-0.00675,-0.010625,-0.00865625,0.00139062
-9.7820e-07,-0.00723438,-0.0103281,-0.00907813,0.001625
-9.7800e-07,-0.00695313,-0.0102187,-0.00834375,0.00179687
-9.7780e-07,-0.00732813,-0.0103125,-0.00901563,0.0016875
-9.7760e-07,-0.00664063,-0.01025,-0.00879688,0.00153125
-9.7740e-07,-0.0070625,-0.0106406,-0.00907813,0.0014375
-9.7720e-07,-0.0068125,-0.0106562,-0.00860938,0.001375
-9.7700e-07,-0.00670313,-0.0107344,-0.00860938,0.00134375
-9.7680e-07,-0.00664063,-0.0102031,-0.0084375,0.0019375
-9.7660e-07,-0.00698438,-0.0100469,-0.0088125,0.00173438
-9.7640e-07,-0.00721875,-0.010625,-0.00895313,0.00140625
-9.7620e-07,-0.00679688,-0.0105781,-0.00875,0.0013125
-9.7600e-07,-0.00698438,-0.0103906,-0.0086875,0.00165625
-9.7580e-07,-0.00654688,-0.0110312,-0.00865625,0.00148437
-9.7560e-07,-0.00670313,-0.0108437,-0.00870313,0.00117187
-9.7540e-07,-0.0069375,-0.0106406,-0.00895313,0.0014375
-9.7520e-07,-0.007,-0.0100937,-0.00873438,0.0019375
-9.7500e-07,-0.00653125,-0.0101406,-0.00860938,0.0015625
-9.7480e-07,-0.00690625,-0.0109531,-0.00884375,0.00129687
-9.7460e-07,-0.00707813,-0.0104844,-0.00898438,0.0016875
-9.7440e-07,-0.00710938,-0.0109062,-0.00878125,0.00121875
-9.7420e-07,-0.00690625,-0.010625,-0.008875,0.00125
-9.7400e-07,-0.0069375,-0.0101094,-0.0080625,0.001875
-9.7380e-07,-0.00723438,-0.0110156,-0.00904688,0.00125
-9.7360e-07,-0.00698438,-0.0107187,-0.00884375,0.00134375
-9.7340e-07,-0.00654688,-0.0107031,-0.00857813,0.0011875
-9.7320e-07,-0.006625,-0.0104531,-0.0086875,0.0015
-9.7300e-07,-0.00657813,-0.01025,-0.00854688,0.00167187
-9.7280e-07,-0.00714063,-0.0105781,-0.00885938,0.00139062
-9.7260e-07,-0.00678125,-0.0105625,-0.00867188,0.00135937
-9.7240e-07,-0.00673438,-0.0104062,-0.008625,0.0015
-9.7220e-07,-0.00653125,-0.0103125,-0.0081875,0.00132812
-9.7200e-07,-0.00717188,-0.0107187,-0.00851563,0.00126562
-9.7180e-07,-0.00703125,-0.0104219,-0.00882813,0.001625
-9.7160e-07,-0.00664063,-0.0103281,-0.0086875,0.00173438
-9.7140e-07,-0.0066875,-0.0103437,-0.00875,0.00153125
-9.7120e-07,-0.0066875,-0.0102031,-0.00854688,0.00160937
-9.7100e-07,-0.00703125,-0.0103906,-0.00898438,0.00125
-9.7080e-07,-0.00729688,-0.0109062,-0.00898438,0.0014375
-9.7060e-07,-0.00690625,-0.0108594,-0.00903125,0.00142187
-9.7040e-07,-0.00635938,-0.0102031,-0.00834375,0.00204688
-9.7020e-07,-0.00707813,-0.0103281,-0.0089375,0.00135937
-9.7000e-07,-0.007375,-0.0105937,-0.0088125,0.0014375
-9.6980e-07,-0.00714063,-0.0104844,-0.00890625,0.00126562
-9.6960e-07,-0.00701563,-0.0105781,-0.00853125,0.00140625
-9.6940e-07,-0.00657813,-0.0108281,-0.00834375,0.00107812
-9.6920e-07,-0.00682813,-0.0108906,-0.0084375,0.00101562
-9.6900e-07,-0.00703125,-0.0107344,-0.00860938,0.00120312
-9.6880e-07,-0.00673438,-0.0101562,-0.008875,0.00196875
-9.6860e-07,-0.00675,-0.0104375,-0.00864063,0.00129687
-9.6840e-07,-0.00728125,-0.0105312,-0.00889063,0.001375
-9.6820e-07,-0.00728125,-0.0100937,-0.00875,0.00132812
-9.6800e-07,-0.00703125,-0.0106875,-0.0088125,0.0011875
-9.6780e-07,-0.0068125,-0.01075,-0.00878125,0.001375
-9.6760e-07,-0.00651563,-0.0100156,-0.008625,0.00220312
-9.6740e-07,-0.00729688,-0.0107812,-0.00928125,0.00125
-9.6720e-07,-0.00698438,-0.0106094,-0.00884375,0.00142187
-9.6700e-07,-0.00665625,-0.010375,-0.00870313,0.00135937
-9.6680e-07,-0.0065625,-0.0105625,-0.00839063,0.00145312
-9.6660e-07,-0.00667188,-0.0102187,-0.00859375,0.0018125
-9.6640e-07,-0.00721875,-0.0106094,-0.00878125,0.00154688
-9.6620e-07,-0.00684375,-0.0106406,-0.00853125,0.00142187
-9.6600e-07,-0.00675,-0.0105312,-0.00865625,0.00115625
-9.6580e-07,-0.00651563,-0.0103437,-0.00834375,0.00134375
-9.6560e-07,-0.007125,-0.0104531,-0.00875,0.00109375
-9.6540e-07,-0.0069375,-0.0103437,-0.00914063,0.00160937
-9.6520e-07,-0.00682813,-0.0101562,-0.00875,0.00176562
-9.6500e-07,-0.007125,-0.0102187,-0.00907813,0.00167187
-9.6480e-07,-0.00671875,-0.0102031,-0.00857813,0.001625
-9.6460e-07,-0.00689063,-0.0106719,-0.00890625,0.0013125
-9.6440e-07,-0.00695313,-0.0107187,-0.00909375,0.00120312
-9.6420e-07,-0.00675,-0.0103437,-0.00882813,0.00128125
-9.6400e-07,-0.00640625,-0.00995312,-0.00826562,0.00178125
-9.6380e-07,-0.007125,-0.0100469,-0.00889063,0.00160937
-9.6360e-07,-0.00723438,-0.0107187,-0.00892188,0.00148437
-9.6340e-07,-0.0068125,-0.0106094,-0.0089375,0.0015
-9.6320e-07,-0.00707813,-0.0104219,-0.00870313,0.00160937
-9.6300e-07,-0.00646875,-0.0102344,-0.00848438,0.00134375
-9.6280e-07,-0.00684375,-0.0107969,-0.00832813,0.00145312
-9.6260e-07,-0.0070625,-0.0105937,-0.00870313,0.00139062
-9.6240e-07,-0.00690625,-0.0100937,-0.00873438,0.00173438
-9.6220e-07,-0.00665625,-0.0102812,-0.00846875,0.00121875
-9.6200e-07,-0.00690625,-0.0107812,-0.00884375,0.00128125
-9.6180e-07,-0.00704688,-0.0102344,-0.00898438,0.00159375
-9.6160e-07,-0.007125,-0.0106875,-0.00885938,0.0011875
-9.6140e-07,-0.00675,-0.0105469,-0.008875,0.00110937
-9.6120e-07,-0.00660938,-0.0100312,-0.00857813,0.0018125
-9.6100e-07,-0.00732813,-0.0107812,-0.0093125,0.000875
-9.6080e-07,-0.007125,-0.0106719,-0.00878125,0.00139062
-9.6060e-07,-0.00714063,-0.0107969,-0.00832813,0.00110937
-9.6040e-07,-0.00704688,-0.0106719,-0.00835938,0.001375
-9.6020e-07,-0.00670313,-0.0103281,-0.00840625,0.00160937
-9.6000e-07,-0.00715625,-0.0107344,-0.00907813,0.0015
-9.5980e-07,-0.0069375,-0.0107812,-0.00854688,0.00134375
-9.5960e-07,-0.00679688,-0.0105156,-0.00871875,0.00132812
-9.5940e-07,-0.00628125,-0.0101562,-0.0084375,0.0016875
-9.5920e-07,-0.00696875,-0.0104531,-0.00873438,0.00148437
-9.5900e-07,-0.0071875,-0.0104687,-0.008875,0.00173438
-9.5880e-07,-0.00704688,-0.0103125,-0.00846875,0.00179687
-9.5860e-07,-0.00715625,-0.0107031,-0.00898438,0.00134375
-9.5840e-07,-0.00673438,-0.0103437,-0.00846875,0.0014375
-9.5820e-07,-0.00704688,-0.0104062,-0.00892188,0.001375
-9.5800e-07,-0.007,-0.010625,-0.00876562,0.00142187
-9.5780e-07,-0.00685938,-0.0108125,-0.00865625,0.00134375
-9.5760e-07,-0.006375,-0.0102344,-0.00840625,0.0018125
-9.5740e-07,-0.0069375,-0.0105156,-0.0086875,0.00157812
-9.5720e-07,-0.00751563,-0.0104531,-0.00920313,0.00139062
-9.5700e-07,-0.00692188,-0.0104531,-0.00885938,0.00135937
-9.5680e-07,-0.0069375,-0.0106719,-0.0085625,0.00154688
-9.5660e-07,-0.00682813,-0.0106562,-0.00846875,0.00117187
-9.5640e-07,-0.00695313,-0.0105625,-0.00845313,0.00129687
-9.5620e-07,-0.00679688,-0.0105469,-0.00865625,0.00117187
-9.5600e-07,-0.00664063,-0.0102031,-0.00853125,0.00184375
-9.5580e-07,-0.00678125,-0.0103125,-0.00845313,0.0015
-9.5560e-07,-0.00695313,-0.0109375,-0.00885938,0.0010625
-9.5540e-07,-0.00709375,-0.0105781,-0.00882813,0.00157812
-9.5520e-07,-0.0074375,-0.0110469,-0.00840625,0.00121875
-9.5500e-07,-0.00696875,-0.0105781,-0.00860938,0.00126562
-9.5480e-07,-0.00665625,-0.00985937,-0.00828125,0.0020625
-9.5460e-07,-0.007,-0.0108437,-0.00901563,0.000953125
-9.5440e-07,-0.006875,-0.0105781,-0.0086875,0.0015
-9.5420e-07,-0.00653125,-0.011,-0.00867188,0.00107812
-9.5400e-07,-0.00673438,-0.0107031,-0.008625,0.00129687
-9.5380e-07,-0.00642188,-0.010375,-0.00864063,0.001625
-9.5360e-07,-0.00692188,-0.0104687,-0.00896875,0.00176562
-9.5340e-07,-0.00639063,-0.010625,-0.0086875,0.00170312
-9.5320e-07,-0.00685938,-0.0103594,-0.00839063,0.0015
-9.5300e-07,-0.00664063,-0.0101875,-0.00839063,0.00171875
-9.5280e-07,-0.0070625,-0.0106406,-0.0085,0.00145312
-9.5260e-07,-0.00721875,-0.0103437,-0.009125,0.00179687
-9.5240e-07,-0.00684375,-0.010375,-0.00890625,0.00171875
-9.5220e-07,-0.00715625,-0.0102344,-0.00895313,0.00145312
-9.5200e-07,-0.0068125,-0.0103125,-0.0085,0.00134375
-9.5180e-07,-0.00707813,-0.0108906,-0.00890625,0.00139062
-9.5160e-07,-0.00704688,-0.0106406,-0.00882813,0.00146875
-9.5140e-07,-0.00682813,-0.0103594,-0.0086875,0.00171875
-9.5120e-07,-0.0065625,-0.00998437,-0.00817188,0.00196875
-9.5100e-07,-0.0070625,-0.0101406,-0.008875,0.00148437
-9.5080e-07,-0.00715625,-0.0105937,-0.00909375,0.001375
-9.5060e-07,-0.0069375,-0.0104375,-0.00892188,0.0013125
-9.5040e-07,-0.0071875,-0.0104062,-0.00870313,0.001625
-9.5020e-07,-0.00664063,-0.0106094,-0.0084375,0.00129687
-9.5000e-07,-0.0066875,-0.0108125,-0.00854688,0.00109375
-9.4980e-07,-0.00675,-0.0105,-0.00865625,0.00121875
-9.4960e-07,-0.00692188,-0.0101406,-0.00859375,0.00189062
-9.4940e-07,-0.00670313,-0.0105156,-0.00842188,0.00139062
-9.4920e-07,-0.00695313,-0.0106562,-0.00890625,0.00164063
-9.4900e-07,-0.007125,-0.0102344,-0.00889063,0.001625
-9.4880e-07,-0.0070625,-0.010625,-0.00867188,0.00151562
-9.4860e-07,-0.007,-0.0104062,-0.00859375,0.00139062
-9.4840e-07,-0.00676562,-0.00989062,-0.00835938,0.00207812
-9.4820e-07,-0.00742188,-0.0112187,-0.00889063,0.00084375
-9.4800e-07,-0.00679688,-0.01075,-0.0088125,0.00148437
-9.4780e-07,-0.00670313,-0.0108281,-0.00854688,0.00142187
-9.4760e-07,-0.00667188,-0.0105156,-0.00859375,0.00153125
-9.4740e-07,-0.00667188,-0.0102344,-0.00865625,0.00196875
-9.4720e-07,-0.00685938,-0.0105937,-0.00876562,0.00182812
-9.4700e-07,-0.00646875,-0.0104687,-0.00832813,0.00151562
-9.4680e-07,-0.00679688,-0.0107656,-0.00854688,0.00140625
-9.4660e-07,-0.00679688,-0.0105469,-0.00834375,0.00170312
-9.4640e-07,-0.00692188,-0.0107812,-0.00851563,0.00167187
-9.4620e-07,-0.00723438,-0.0104531,-0.00896875,0.00171875
-9.4600e-07,-0.0068125,-0.0103281,-0.00853125,0.00196875
-9.4580e-07,-0.0071875,-0.0105312,-0.00901563,0.00126562
-9.4560e-07,-0.00646875,-0.0107812,-0.0084375,0.0014375
-9.4540e-07,-0.00692188,-0.0107969,-0.00895313,0.00142187
-9.4520e-07,-0.00717188,-0.0106094,-0.00851563,0.00148437
-9.4500e-07,-0.00690625,-0.0103437,-0.0088125,0.001375
-9.4480e-07,-0.00640625,-0.0099375,-0.00842188,0.00192187
-9.4460e-07,-0.007,-0.0104687,-0.0090625,0.00103125
-9.4440e-07,-0.007,-0.0104062,-0.00873438,0.00148437
-9.4420e-07,-0.006875,-0.01025,-0.00867188,0.00176562
-9.4400e-07,-0.00714063,-0.0104375,-0.00875,0.0016875
-9.4380e-07,-0.0069375,-0.0108594,-0.00853125,0.00146875
-9.4360e-07,-0.00695313,-0.0107656,-0.00867188,0.001125
-9.4340e-07,-0.00689063,-0.0109062,-0.00871875,0.00121875
-9.4320e-07,-0.0066875,-0.0102031,-0.008625,0.0015
-9.4300e-07,-0.00664063,-0.0101562,-0.00854688,0.00128125
-9.4280e-07,-0.00692188,-0.0104531,-0.00870313,0.00126562
-9.4260e-07,-0.006875,-0.0106719,-0.00876562,0.00140625
-9.4240e-07,-0.00698438,-0.0108281,-0.00873438,0.00145312
-9.4220e-07,-0.00690625,-0.010625,-0.0086875,0.0013125
-9.4200e-07,-0.00657813,-0.00970312,-0.00835938,0.00257812
-9.4180e-07,-0.00728125,-0.0111875,-0.00898438,0.00115625
-9.4160e-07,-0.00671875,-0.0107031,-0.00898438,0.0014375
-9.4140e-07,-0.0068125,-0.0108594,-0.00851563,0.00101562
-9.4120e-07,-0.00714063,-0.0106406,-0.0085625,0.00140625
-9.4100e-07,-0.0068125,-0.0103594,-0.00828125,0.00165625
-9.4080e-07,-0.00690625,-0.0105312,-0.00885938,0.00189062
-9.4060e-07,-0.00673438,-0.010625,-0.0088125,0.00145312
-9.4040e-07,-0.00692188,-0.0105937,-0.00867188,0.00134375
-9.4020e-07,-0.006625,-0.0102031,-0.0084375,0.00170312
-9.4000e-07,-0.007,-0.0105937,-0.00854688,0.00123438
-9.3980e-07,-0.00704688,-0.0103125,-0.00898438,0.001625
-9.3960e-07,-0.00689063,-0.0103437,-0.00864063,0.00173438
-9.3940e-07,-0.00695313,-0.0102187,-0.00892188,0.00125
-9.3920e-07,-0.00654688,-0.0106562,-0.00854688,0.00146875
-9.3900e-07,-0.00701563,-0.0107031,-0.00898438,0.00148437
-9.3880e-07,-0.007,-0.0106406,-0.00870313,0.000953125
-9.3860e-07,-0.00696875,-0.0105937,-0.008875,0.00120312
-9.3840e-07,-0.00632813,-0.009875,-0.00829688,0.00196875
-9.3820e-07,-0.00709375,-0.0105312,-0.00915625,0.00129687
-9.3800e-07,-0.007125,-0.0106094,-0.008625,0.00153125
-9.3780e-07,-0.0069375,-0.0103281,-0.00864063,0.00140625
-9.3760e-07,-0.00698438,-0.0105781,-0.00876562,0.00160937
-9.3740e-07,-0.006625,-0.0106719,-0.0085,0.0010625
-9.3720e-07,-0.00678125,-0.0109375,-0.00829688,0.00078125
-9.3700e-07,-0.00695313,-0.0106094,-0.00889063,0.00129687
-9.3680e-07,-0.00689063,-0.0104219,-0.00859375,0.00173438
-9.3660e-07,-0.00685938,-0.0103594,-0.00848438,0.00142187
-9.3640e-07,-0.00696875,-0.0105625,-0.00882813,0.0016875
-9.3620e-07,-0.00690625,-0.0104687,-0.008875,0.0015625
-9.3600e-07,-0.00698438,-0.0104062,-0.00896875,0.00140625
-9.3580e-07,-0.00676562,-0.0105469,-0.00870313,0.00110937
-9.3560e-07,-0.00692188,-0.00964062,-0.00840625,0.0021875
-9.3540e-07,-0.00729688,-0.0109531,-0.00920313,0.000796875
-9.3520e-07,-0.00684375,-0.0105312,-0.00878125,0.00140625
-9.3500e-07,-0.006375,-0.0107656,-0.0085625,0.00101562
-9.3480e-07,-0.00684375,-0.0105,-0.00873438,0.00157812
-9.3460e-07,-0.00646875,-0.0102812,-0.0085,0.00189062
-9.3440e-07,-0.00695313,-0.0106094,-0.0089375,0.00175
-9.3420e-07,-0.00684375,-0.0106719,-0.00848438,0.00146875
-9.3400e-07,-0.007,-0.0108125,-0.00865625,0.00115625
-9.3380e-07,-0.00654688,-0.0101875,-0.00840625,0.00128125
-9.3360e-07,-0.00696875,-0.0106562,-0.00875,0.00123438
-9.3340e-07,-0.00710938,-0.0103125,-0.009,0.0015
-9.3320e-07,-0.00701563,-0.0103281,-0.00879688,0.00184375
-9.3300e-07,-0.00729688,-0.0105937,-0.00898438,0.00157812
-9.3280e-07,-0.00673438,-0.0104219,-0.00854688,0.00157812
-9.3260e-07,-0.007125,-0.0108281,-0.00879688,0.00115625
-9.3240e-07,-0.00728125,-0.0107969,-0.00882813,0.00109375
-9.3220e-07,-0.00684375,-0.0106719,-0.00879688,0.00140625
-9.3200e-07,-0.00654688,-0.0101875,-0.008375,0.00179687
-9.3180e-07,-0.00717188,-0.0104531,-0.009125,0.00110937
-9.3160e-07,-0.007125,-0.0103125,-0.00882813,0.00110937
-9.3140e-07,-0.00707813,-0.0100625,-0.00889063,0.00148437
-9.3120e-07,-0.00723438,-0.0104531,-0.00879688,0.00140625
-9.3100e-07,-0.0064375,-0.0107812,-0.0085,0.0014375
-9.3080e-07,-0.006875,-0.0109687,-0.00867188,0.00109375
-9.3060e-07,-0.00676562,-0.0105156,-0.00882813,0.0014375
-9.3040e-07,-0.0069375,-0.0103281,-0.00871875,0.00175
-9.3020e-07,-0.00660938,-0.0105469,-0.00848438,0.00154688
-9.3000e-07,-0.00679688,-0.0106875,-0.00895313,0.00115625
-9.2980e-07,-0.00692188,-0.0105625,-0.00892188,0.00139062
-9.2960e-07,-0.00729688,-0.0108437,-0.00873438,0.0011875
-9.2940e-07,-0.00670313,-0.0108281,-0.00848438,0.00132812
