Attenuation EXP without ambient light/tek0024ALL.csv

Model,DPO4104B
Firmware Version,1.38

Waveform Type,Analog,Analog,Analog,Analog
Point Format,Y,,,
Horizontal Units,s,,,
Horizontal Scale,4e-09,,,
Horizontal Delay,1.6e-09,1.6e-09,1.6e-09,1.6e-09
Sample Interval,2e-10,,,
Record Length,10000,,,
Gating,0.0% to 100.0%,0.0% to 100.0%,0.0% to 100.0%,0.0% to 100.0%
Probe Attenuation,1,1,1,1
Vertical Units,V,V,V,V
Vertical Offset,0,0,0,0
Vertical Scale,0.1,0.1,0.1,0.1
Vertical Position,-3.56,-3.5,-3.54,-3.66
Label,,,,
TIME,CH1,CH2,CH3,CH4
-9.9840e-07,0,-0.01,-0.01,0.002
-9.9820e-07,0.004,-0.018,-0.002,0.002
-9.9800e-07,-0.004,-0.01,0.002,0.002
-9.9780e-07,-0.008,-0.014,-0.002,-0.002
-9.9760e-07,-0.004,-0.006,-0.002,0.006
-9.9740e-07,-0.012,-0.006,-0.002,0.002
-9.9720e-07,-0.004,-0.006,-0.01,0.01
-9.9700e-07,-0.004,-0.014,-0.006,0.006
-9.9680e-07,0.004,-0.006,-0.006,0.006
-9.9660e-07,-0.012,-0.014,-0.002,0.006
-9.9640e-07,-0.008,-0.006,-0.01,0.006
-9.9620e-07,-0.008,-0.01,-0.006,0.002
-9.9600e-07,0,-0.01,-0.01,0.002
-9.9580e-07,-0.004,-0.006,-0.014,0.006
-9.9560e-07,0.004,0.002,-0.014,0.01
-9.9540e-07,-0.004,-0.01,-0.014,0.01
-9.9520e-07,0,-0.006,-0.01,0.01
-9.9500e-07,0,-0.006,-0.006,0.002
-9.9480e-07,0,-0.006,-0.014,0.01
-9.9460e-07,-0.008,-0.014,-0.01,0.006
-9.9440e-07,-0.004,-0.006,-0.01,0.006
-9.9420e-07,-0.008,-0.006,-0.002,-0.002
-9.9400e-07,0.008,-0.006,-0.014,0.002
-9.9380e-07,0,-0.014,-0.006,0.01
-9.9360e-07,-0.004,-0.01,-0.006,0.006
-9.9340e-07,0,-0.01,0.006,0.002
-9.9320e-07,0,-0.006,-0.002,0.002
-9.9300e-07,0,-0.014,-0.002,0.006
-9.9280e-07,-0.004,-0.01,-0.01,0.002
-9.9260e-07,-0.004,-0.014,-0.006,-0.002
-9.9240e-07,-0.004,-0.002,-0.01,0.006
-9.9220e-07,0,-0.014,-0.002,0.006
-9.9200e-07,0.004,-0.014,-0.018,0.006
-9.9180e-07,-0.004,-0.01,-0.01,0.01
-9.9160e-07,0,-0.01,-0.006,0.002
-9.9140e-07,-0.004,0.002,0.002,-0.002
-9.9120e-07,0,-0.006,-0.006,0.006
-9.9100e-07,-0.004,-0.002,-0.002,0.002
-9.9080e-07,0,-0.006,-0.006,0.006
-9.9060e-07,-0.004,-0.01,-0.002,0.006
-9.9040e-07,0,-0.006,-0.002,0.002
-9.9020e-07,-0.008,-0.01,-0.002,0.006
-9.9000e-07,0,-0.002,-0.006,0.01
-9.8980e-07,-0.004,-0.002,-0.006,0.01
-9.8960e-07,-0.004,-0.002,-0.006,0.006
-9.8940e-07,-0.008,-0.01,-0.006,0.01
-9.8920e-07,0,-0.01,-0.006,0.006
-9.8900e-07,-0.008,-0.006,0.002,0.006
-9.8880e-07,0,-0.002,-0.006,0.002
-9.8860e-07,-0.004,-0.002,0.002,0.01
-9.8840e-07,0,-0.01,-0.006,0.006
-9.8820e-07,-0.004,-0.01,-0.006,0.01
-9.8800e-07,0.004,-0.01,-0.002,0.006
-9.8780e-07,-0.004,-0.01,-0.002,-0.002
-9.8760e-07,-0.004,-0.002,-0.002,0.006
-9.8740e-07,0,-0.006,0.002,0.006
-9.8720e-07,0,-0.01,-0.006,0.002
-9.8700e-07,0,-0.01,-0.002,0.006
-9.8680e-07,0.004,0.002,-0.006,0.002
-9.8660e-07,-0.004,-0.002,-0.006,0.002
-9.8640e-07,0,-0.006,-0.01,0.014
-9.8620e-07,-0.004,-0.006,-0.006,0.006
-9.8600e-07,0.004,-0.006,-0.006,0.006
-9.8580e-07,-0.004,-0.006,0.002,0.006
-9.8560e-07,0.004,-0.006,0.002,0.006
-9.8540e-07,-0.004,-0.002,0.002,0.006
-9.8520e-07,-0.008,-0.006,-0.006,0.006
-9.8500e-07,-0.004,-0.006,-0.002,0.006
-9.8480e-07,-0.004,-0.01,-0.002,0.01
-9.8460e-07,-0.008,-0.01,-0.006,0.006
-9.8440e-07,-0.004,-0.006,-0.01,0.002
-9.8420e-07,0,-0.01,-0.006,0.01
-9.8400e-07,0.008,-0.014,-0.01,0.006
-9.8380e-07,0.004,-0.006,-0.01,0.006
-9.8360e-07,0.004,-0.006,-0.006,0.006
-9.8340e-07,-0.012,-0.01,-0.006,0.006
-9.8320e-07,0,-0.002,-0.006,0.006
-9.8300e-07,0,-0.014,-0.006,0.006
-9.8280e-07,0,-0.01,-0.006,-0.002
-9.8260e-07,-0.004,-0.014,-0.01,0.002
-9.8240e-07,-0.004,-0.006,-0.01,0.006
-9.8220e-07,-0.012,-0.01,-0.006,0.006
-9.8200e-07,0,-0.002,-0.002,0.002
-9.8180e-07,-0.008,-0.01,-0.006,0.002
-9.8160e-07,-0.004,-0.006,-0.006,0.006
-9.8140e-07,-0.008,-0.006,-0.002,0.002
-9.8120e-07,0,-0.006,-0.006,0.006
-9.8100e-07,-0.004,-0.01,0.002,0.006
-9.8080e-07,0,-0.006,-0.006,0.002
-9.8060e-07,-0.012,-0.006,-0.006,0.002
-9.8040e-07,0,-0.006,-0.01,0.006
-9.8020e-07,-0.004,-0.014,-0.006,0.014
-9.8000e-07,-0.008,-0.006,-0.002,0.01
-9.7980e-07,-0.004,-0.006,-0.006,-0.002
-9.7960e-07,0,-0.002,-0.006,-0.002
-9.7940e-07,0.004,-0.002,-0.01,0.006
-9.7920e-07,0,0.002,-0.01,0.01
-9.7900e-07,-0.004,-0.014,-0.002,0.002
-9.7880e-07,-0.004,-0.006,-0.002,0.002
-9.7860e-07,-0.008,-0.014,-0.002,0.002
-9.7840e-07,0,-0.01,-0.006,0.006
-9.7820e-07,-0.004,-0.01,-0.006,0.006
-9.7800e-07,0.004,-0.002,-0.006,0.006
-9.7780e-07,-0.008,-0.006,-0.002,0.01
-9.7760e-07,0,-0.01,-0.006,0.002
-9.7740e-07,-0.004,-0.01,-0.006,0.01
-9.7720e-07,-0.004,-0.006,-0.014,0.006
-9.7700e-07,0,-0.01,0.002,0.002
-9.7680e-07,0,-0.006,-0.006,0.006
-9.7660e-07,-0.004,-0.01,-0.006,0.01
-9.7640e-07,0,-0.006,-0.014,0.006
-9.7620e-07,0.004,-0.006,0.002,0.002
-9.7600e-07,0,-0.01,-0.006,0.006
-9.7580e-07,-0.004,-0.002,0.002,0.006
-9.7560e-07,0,-0.006,-0.006,0.006
-9.7540e-07,-0.004,-0.006,-0.002,0.01
-9.7520e-07,-0.008,-0.006,-0.006,0.01
-9.7500e-07,-0.008,-0.01,-0.006,0.006
-9.7480e-07,0,-0.006,-0.006,0.002
-9.7460e-07,-0.008,-0.01,-0.002,-0.002
-9.7440e-07,0,-0.006,-0.002,-0.006
-9.7420e-07,-0.004,-0.01,-0.002,0.006
-9.7400e-07,-0.004,-0.006,-0.006,0.002
-9.7380e-07,-0.004,-0.014,-0.006,0.006
-9.7360e-07,0,-0.014,-0.002,0.006
-9.7340e-07,-0.008,-0.01,-0.002,0.002
-9.7320e-07,0,-0.01,0.002,0.01
-9.7300e-07,-0.004,-0.01,-0.002,0.01
-9.7280e-07,0,-0.01,-0.006,0.002
-9.7260e-07,0,-0.014,-0.002,0.002
-9.7240e-07,0,-0.006,-0.014,0.002
-9.7220e-07,-0.004,-0.006,-0.01,0.002
-9.7200e-07,0,-0.01,-0.006,0.006
-9.7180e-07,-0.008,-0.002,0.006,0.006
-9.7160e-07,0,-0.01,-0.006,0.002
-9.7140e-07,0,-0.014,-0.006,0.006
-9.7120e-07,0,-0.006,-0.01,0.006
-9.7100e-07,-0.012,-0.01,0.002,0.002
-9.7080e-07,0,-0.006,-0.006,0.002
-9.7060e-07,-0.008,-0.006,-0.002,0.006
-9.7040e-07,0,-0.006,-0.006,0.01
-9.7020e-07,-0.004,-0.006,-0.002,-0.002
-9.7000e-07,0.004,-0.006,-0.006,0.002
-9.6980e-07,-0.004,-0.01,0.002,0.002
-9.6960e-07,0.004,-0.002,-0.006,0.002
-9.6940e-07,-0.004,-0.01,-0.002,0.01
-9.6920e-07,0,-0.006,-0.01,0.006
-9.6900e-07,-0.008,-0.002,-0.002,0.006
-9.6880e-07,0,-0.006,-0.006,0.006
-9.6860e-07,0,-0.01,-0.006,0.006
-9.6840e-07,0.004,-0.006,-0.006,0.006
-9.6820e-07,0,-0.006,-0.006,0.002
-9.6800e-07,-0.004,-0.002,-0.006,0.006
-9.6780e-07,-0.008,-0.01,-0.002,0.01
-9.6760e-07,0,-0.002,-0.006,0.014
-9.6740e-07,0,-0.01,0.002,0.01
-9.6720e-07,-0.004,-0.002,-0.006,0.006
-9.6700e-07,-0.004,-0.01,-0.002,0.002
-9.6680e-07,-0.008,-0.006,-0.002,0.006
-9.6660e-07,-0.004,-0.018,0.01,0.01
-9.6640e-07,-0.004,-0.01,-0.002,0.01
-9.6620e-07,-0.004,-0.014,-0.002,0.01
-9.6600e-07,-0.004,-0.006,0.002,0.006
-9.6580e-07,-0.008,-0.006,-0.002,0.002
-9.6560e-07,0,-0.006,-0.006,0.006
-9.6540e-07,-0.004,0.002,-0.01,0.006
-9.6520e-07,0,-0.002,-0.006,0.01
-9.6500e-07,0,-0.006,-0.002,0.006
-9.6480e-07,0,-0.01,-0.006,0.006
-9.6460e-07,-0.008,-0.014,-0.002,0.006
-9.6440e-07,-0.008,-0.01,-0.006,0.002
-9.6420e-07,0,-0.01,-0.002,0.006
-9.6400e-07,0,-0.002,-0.01,0.006
-9.6380e-07,-0.008,-0.01,-0.006,0.01
-9.6360e-07,-0.008,-0.006,0.002,0.006
-9.6340e-07,-0.004,-0.002,-0.002,0.006
-9.6320e-07,-0.004,-0.006,-0.006,0.006
-9.6300e-07,-0.012,-0.014,-0.002,-0.002
-9.6280e-07,0.004,-0.002,-0.006,0.002
-9.6260e-07,0,-0.006,0.002,0.002
-9.6240e-07,-0.004,-0.002,-0.006,0.006
-9.6220e-07,-0.004,-0.01,0.002,-0.002
-9.6200e-07,-0.004,-0.006,-0.002,0.006
-9.6180e-07,-0.008,-0.006,-0.006,0.006
-9.6160e-07,-0.008,-0.006,-0.006,0.01
-9.6140e-07,-0.008,-0.006,-0.002,0.002
-9.6120e-07,-0.008,-0.006,-0.006,0.002
-9.6100e-07,-0.004,-0.002,-0.002,-0.002
-9.6080e-07,-0.008,-0.002,-0.002,-0.002
-9.6060e-07,-0.004,-0.006,0.002,0.01
-9.6040e-07,-0.008,-0.006,0.006,0.006
-9.6020e-07,-0.004,-0.01,-0.006,0.002
-9.6000e-07,0.008,-0.006,-0.01,-0.006
-9.5980e-07,-0.004,-0.01,-0.002,-0.002
-9.5960e-07,-0.004,-0.01,-0.002,0.006
-9.5940e-07,-0.008,-0.006,0.006,0.006
-9.5920e-07,-0.008,-0.006,-0.002,0.006
-9.5900e-07,-0.012,-0.006,-0.006,0.01
-9.5880e-07,0,-0.002,-0.006,0.01
-9.5860e-07,0.004,-0.014,0.002,0.006
-9.5840e-07,0.004,-0.01,-0.006,0.006
-9.5820e-07,-0.004,-0.006,0.002,0.006
-9.5800e-07,-0.004,-0.006,-0.01,0.006
-9.5780e-07,-0.004,-0.006,-0.006,0.002
-9.5760e-07,0,-0.006,-0.01,0.006
-9.5740e-07,-0.004,-0.01,-0.006,0.01
-9.5720e-07,0,-0.002,0.002,0.01
-9.5700e-07,-0.008,-0.006,0.006,0.006
-9.5680e-07,0,-0.006,-0.002,0.006
-9.5660e-07,-0.004,-0.01,-0.002,-0.006
-9.5640e-07,-0.004,-0.006,-0.002,-0.002
-9.5620e-07,-0.008,-0.01,-0.01,0.006
-9.5600e-07,0,0.002,-0.002,0.01
-9.5580e-07,0,-0.002,-0.006,0.01
-9.5560e-07,-0.004,-0.002,-0.006,0.01
-9.5540e-07,-0.008,-0.006,-0.006,0.006
-9.5520e-07,-0.004,-0.006,-0.002,0.01
-9.5500e-07,-0.008,-0.014,0.002,0.006
-9.5480e-07,0.004,-0.014,-0.002,0.002
-9.5460e-07,-0.004,-0.01,0.002,0.014
-9.5440e-07,-0.008,-0.002,-0.002,0.01
-9.5420e-07,-0.004,0.002,-0.002,0.014
-9.5400e-07,-0.004,-0.002,-0.006,0.006
-9.5380e-07,-0.004,-0.01,-0.01,0.002
-9.5360e-07,0,-0.01,-0.006,0.002
-9.5340e-07,-0.008,-0.006,-0.006,0.006
-9.5320e-07,0,-0.002,-0.002,0.002
-9.5300e-07,0,-0.01,-0.006,0.006
-9.5280e-07,-0.004,-0.002,-0.01,0.01
-9.5260e-07,-0.008,-0.006,-0.01,0.002
-9.5240e-07,0,-0.006,-0.01,0.002
-9.5220e-07,-0.008,-0.01,-0.002,0.01
-9.5200e-07,-0.004,-0.01,-0.01,0.01
-9.5180e-07,-0.008,-0.01,0.002,0.01
-9.5160e-07,-0.004,-0.01,-0.006,0.002
-9.5140e-07,0,-0.01,-0.01,0.002
-9.5120e-07,0.004,-0.006,-0.006,0.01
-9.5100e-07,0.004,-0.01,-0.006,0.01
-9.5080e-07,0.004,-0.014,-0.006,0.006
-9.5060e-07,-0.004,-0.018,-0.006,0.002
-9.5040e-07,0,-0.006,-0.014,0.006
-9.5020e-07,-0.004,-0.01,-0.006,0.006
-9.5000e-07,-0.004,-0.006,-0.006,0.01
-9.4980e-07,-0.004,-0.006,-0.002,0.006
-9.4960e-07,0.004,0.002,0.002,0.006
-9.4940e-07,0,-0.01,-0.002,0.006
-9.4920e-07,-0.004,-0.01,-0.014,0.006
-9.4900e-07,-0.004,-0.01,-0.018,0.002
-9.4880e-07,0,-0.006,-0.006,0.01
-9.4860e-07,-0.004,-0.014,-0.006,0.002
-9.4840e-07,0.004,-0.006,-0.006,0.006
-9.4820e-07,0.004,-0.002,-0.01,0.002
-9.4800e-07,0,-0.006,-0.01,0.006
-9.4780e-07,-0.004,-0.01,-0.002,0.002
-9.4760e-07,0,-0.014,-0.01,0.006
-9.4740e-07,-0.004,-0.01,-0.002,-0.002
-9.4720e-07,0,-0.002,-0.01,0.01
-9.4700e-07,-0.004,-0.014,-0.002,0.006
-9.4680e-07,0,-0.01,-0.002,0.006
-9.4660e-07,-0.004,-0.01,-0.006,0.006
-9.4640e-07,-0.004,-0.006,-0.014,0.006
-9.4620e-07,-0.004,-0.006,-0.002,0.002
-9.4600e-07,-0.004,-0.002,-0.002,-0.006
-9.4580e-07,-0.008,-0.01,0.002,0.006
-9.4560e-07,-0.004,0.002,-0.002,0.014
-9.4540e-07,-0.004,-0.01,-0.006,0.01
-9.4520e-07,0,-0.01,-0.006,0.002
-9.4500e-07,-0.008,-0.018,-0.002,0.006
-9.4480e-07,0.004,-0.006,-0.006,0.01
-9.4460e-07,0.004,-0.006,-0.006,0.006
-9.4440e-07,0.004,-0.006,-0.01,0.01
-9.4420e-07,-0.004,-0.018,-0.01,0.014
-9.4400e-07,0,-0.002,-0.006,0.01
-9.4380e-07,0,-0.002,-0.006,0.002
-9.4360e-07,0.004,-0.002,-0.006,0.01
-9.4340e-07,-0.004,-0.01,0.002,0.006
-9.4320e-07,0,-0.006,0.002,0.006
-9.4300e-07,-0.008,-0.014,-0.002,0.01
-9.4280e-07,0,-0.01,-0.01,0.006
-9.4260e-07,-0.008,-0.014,-0.002,0.002
-9.4240e-07,0.004,-0.006,-0.006,0.002
-9.4220e-07,-0.004,-0.01,0.002,0.002
-9.4200e-07,0,-0.006,-0.006,0.006
-9.4180e-07,-0.008,-0.006,-0.002,0.01
-9.4160e-07,0,-0.006,-0.006,0.006
-9.4140e-07,0,-0.01,-0.002,0.01
-9.4120e-07,0,-0.006,-0.002,0.002
-9.4100e-07,-0.004,-0.014,-0.01,0.006
-9.4080e-07,0.004,-0.014,-0.006,0.002
-9.4060e-07,-0.004,-0.01,-0.006,-0.002
-9.4040e-07,0,-0.006,-0.006,0.01
-9.4020e-07,-0.008,-0.006,-0.006,0.002
-9.4000e-07,0.004,-0.01,-0.01,0.014
-9.3980e-07,-0.004,-0.01,0.002,0.002
-9.3960e-07,0,0.002,-0.006,0.01
-9.3940e-07,-0.004,-0.002,-0.006,0.006
-9.3920e-07,0,-0.002,-0.01,0.01
-9.3900e-07,-0.012,-0.006,-0.01,0.018
-9.3880e-07,-0.012,0.002,-0.014,0.01
-9.3860e-07,-0.012,-0.01,-0.002,0.006
-9.3840e-07,0,-0.002,-0.006,0.01
-9.3820e-07,-0.004,-0.002,-0.002,0.01
-9.3800e-07,0,0.006,-0.006,0.002
-9.3780e-07,0,-0.01,-0.006,0.006
-9.3760e-07,0.004,-0.006,-0.006,0.01
-9.3740e-07,-0.004,-0.006,-0.006,0.006
-9.3720e-07,0.004,-0.006,-0.01,0.006
-9.3700e-07,-0.004,-0.014,-0.006,0.002
-9.3680e-07,0,-0.006,-0.01,0.006
-9.3660e-07,-0.004,-0.006,-0.006,0.01
-9.3640e-07,-0.004,-0.002,0.002,0.01
-9.3620e-07,-0.012,-0.002,0.006,0.006
-9.3600e-07,0.004,-0.01,-0.006,0.006
-9.3580e-07,-0.004,-0.01,-0.002,0.01
-9.3560e-07,-0.004,-0.006,-0.006,0.01
-9.3540e-07,-0.004,-0.01,-0.002,0.002
-9.3520e-07,-0.004,-0.006,-0.01,0.01
-9.3500e-07,0,-0.01,-0.006,0.006
-9.3480e-07,-0.004,-0.006,-0.014,0.014
-9.3460e-07,-0.008,-0.01,-0.01,0.01
-9.3440e-07,-0.004,-0.01,-0.006,0.01
-9.3420e-07,-0.012,-0.014,-0.006,0.006
-9.3400e-07,-0.004,-0.01,-0.006,0.01
-9.3380e-07,0,-0.002,-0.01,0.002
-9.3360e-07,-0.004,-0.002,-0.002,0.006
-9.3340e-07,-0.004,-0.01,-0.002,0.006
-9.3320e-07,0.004,-0.006,-0.006,0.006
-9.3300e-07,-0.004,-0.006,-0.002,0.006
-9.3280e-07,0,-0.006,-0.014,0.01
-9.3260e-07,-0.004,-0.002,-0.006,0.002
-9.3240e-07,-0.008,-0.006,-0.01,0.006
-9.3220e-07,-0.012,-0.014,-0.002,0.01
-9.3200e-07,-0.004,-0.002,-0.006,0.01
-9.3180e-07,-0.012,-0.006,-0.01,0.01
-9.3160e-07,-0.004,-0.006,-0.006,0.006
-9.3140e-07,-0.008,-0.01,0.002,0.01
-9.3120e-07,0,-0.006,-0.002,0.01
-9.3100e-07,-0.012,-0.01,0.002,0.002
-9.3080e-07,0,-0.01,-0.006,0.002
-9.3060e-07,-0.004,-0.006,-0.006,0.006
-9.3040e-07,0,-0.006,-0.006,0.01
-9.3020e-07,0,-0.006,-0.002,0.01
-9.3000e-07,0,-0.006,0.002,0.006
-9.2980e-07,-0.004,-0.01,-0.002,0.006
-9.2960e-07,0,-0.002,-0.006,0.006
-9.2940e-07,0,-0.01,-0.002,0.006
-9.2920e-07,0,-0.01,-0.002,0.006
-9.2900e-07,-0.008,-0.006,0.002,0.01
-9.2880e-07,0,-0.006,-0.006,0.002
-9.2860e-07,-0.004,-0.006,-0.006,0.002
-9.2840e-07,0,-0.006,-0.01,0.006
-9.2820e-07,-0.004,-0.022,-0.002,0.006
-9.2800e-07,0,-0.01,-0.006,0.006
-9.2780e-07,-0.008,-0.01,-0.01,0.006
-9.2760e-07,0,0.002,-0.01,0.006
-9.2740e-07,-0.004,-0.006,-0.006,0.006
-9.2720e-07,0.004,-0.01,0.002,0.006
-9.2700e-07,-0.008,-0.002,0.002,0.006
-9.2680e-07,0,-0.006,-0.006,0.006
-9.2660e-07,-0.008,-0.006,-0.006,0.006
-9.2640e-07,0.008,-0.002,-0.01,0.002
-9.2620e-07,0,-0.01,-0.006,0.01
-9.2600e-07,0.004,-0.002,-0.014,0.006
-9.2580e-07,0,-0.014,-0.002,0.006
-9.2560e-07,0,-0.002,-0.002,0.018
-9.2540e-07,0,-0.01,-0.002,0.006
-9.2520e-07,0,-0.006,-0.006,0.006
-9.2500e-07,-0.008,-0.014,0.002,0.01
-9.2480e-07,-0.004,-0.006,-0.006,0.006
-9.2460e-07,-0.008,-0.006,-0.002,0.002
-9.2440e-07,-0.004,-0.006,-0.01,0.01
-9.2420e-07,-0.004,-0.01,-0.01,0.002
-9.2400e-07,-0.004,-0.01,-0.01,0.006
-9.2380e-07,-0.008,-0.01,-0.002,0.002
-9.2360e-07,0.004,-0.006,-0.006,0.002
-9.2340e-07,0,-0.006,0.002,0.006
-9.2320e-07,0.004,-0.006,-0.006,-0.002
-9.2300e-07,0,-0.002,-0.002,0.002
-9.2280e-07,0.004,0.002,-0.006,0.006
-9.2260e-07,-0.004,-0.006,-0.002,0.006
-9.2240e-07,-0.004,-0.002,-0.018,0.002
-9.2220e-07,-0.008,-0.01,-0.006,-0.002
-9.2200e-07,0,-0.006,-0.002,0.002
-9.2180e-07,-0.004,-0.002,-0.006,0.01
-9.2160e-07,0,-0.002,-0.006,0.006
-9.2140e-07,-0.008,-0.01,-0.002,0.01
-9.2120e-07,-0.004,-0.006,-0.01,0.002
-9.2100e-07,0,-0.01,0.002,0.002
-9.2080e-07,0.004,-0.01,-0.006,0.002
-9.2060e-07,-0.004,-0.006,-0.01,0.006
-9.2040e-07,0,-0.01,-0.006,0.014
-9.2020e-07,-0.008,-0.01,-0.006,0.01
-9.2000e-07,0.004,-0.01,-0.01,0.01
-9.1980e-07,0,-0.01,-0.01,0.002
-9.1960e-07,0,-0.006,-0.006,0.002
-9.1940e-07,-0.004,-0.006,-0.01,0.006
-9.1920e-07,0,-0.006,-0.01,0.006
-9.1900e-07,0,-0.01,-0.002,0.006
-9.1880e-07,0.004,-0.002,-0.006,0.01
-9.1860e-07,-0.008,-0.006,-0.006,0.01
-9.1840e-07,0,-0.006,-0.014,0.006
-9.1820e-07,-0.004,-0.002,-0.002,0.01
-9.1800e-07,0,-0.002,-0.002,0.006
-9.1780e-07,-0.004,-0.01,-0.002,0.006
-9.1760e-07,-0.004,-0.006,-0.002,0.002
-9.1740e-07,-0.004,-0.01,0.002,0.002
-9.1720e-07,0,-0.006,-0.006,0.006
-9.1700e-07,-0.008,-0.006,-0.002,0.006
-9.1680e-07,-0.008,-0.006,0.002,0.01
-9.1660e-07,-0.004,-0.01,0.01,0.01
-9.1640e-07,0.004,-0.002,-0.002,0.002
-9.1620e-07,-0.004,-0.006,-0.006,0.006
-9.1600e-07,-0.004,-0.006,-0.002,0.006
-9.1580e-07,-0.008,-0.01,-0.01,0.002
-9.1560e-07,-0.004,-0.002,-0.002,0.006
-9.1540e-07,-0.008,-0.006,-0.006,0.006
-9.1520e-07,-0.004,-0.014,-0.006,0.01
-9.1500e-07,-0.008,-0.01,0.002,0.006
-9.1480e-07,-0.008,-0.006,-0.006,0.006
-9.1460e-07,-0.004,-0.01,-0.002,0.006
-9.1440e-07,0,-0.006,-0.006,0.002
-9.1420e-07,-0.004,-0.01,-0.006,0.002
-9.1400e-07,-0.004,-0.006,-0.014,0.002
-9.1380e-07,-0.008,-0.01,-0.006,0.002
-9.1360e-07,-0.004,-0.01,-0.002,0.006
-9.1340e-07,0,-0.01,-0.002,-0.002
-9.1320e-07,0,-0.006,-0.014,0.002
-9.1300e-07,-0.008,-0.006,-0.01,0.006
-9.1280e-07,-0.004,-0.002,-0.01,0.006
-9.1260e-07,0,-0.002,0.002,0.01
-9.1240e-07,0.004,-0.006,-0.01,-0.002
-9.1220e-07,0.004,-0.014,-0.006,0.01
-9.1200e-07,0,-0.01,-0.01,0.006
-9.1180e-07,-0.008,-0.014,-0.006,0.002
-9.1160e-07,-0.004,-0.01,-0.002,0.014
-9.1140e-07,-0.004,-0.01,-0.006,0.014
-9.1120e-07,-0.004,-0.006,-0.006,0.006
-9.1100e-07,-0.004,-0.01,-0.002,0.006
-9.1080e-07,-0.008,-0.002,-0.006,0.002
-9.1060e-07,-0.004,-0.01,-0.006,0.006
-9.1040e-07,0,0.002,-0.014,0.006
-9.1020e-07,-0.008,-0.006,-0.006,0.006
-9.1000e-07,-0.004,0.002,-0.014,-0.002
-9.0980e-07,-0.008,-0.01,-0.006,0.006
-9.0960e-07,0,-0.014,-0.002,0.006
-9.0940e-07,-0.008,-0.014,0.006,0.006
-9.0920e-07,0,-0.006,-0.01,0.006
-9.0900e-07,-0.012,-0.006,-0.01,0.006
-9.0880e-07,-0.008,0.002,-0.006,0.002
-9.0860e-07,-0.008,-0.01,-0.006,0.002
-9.0840e-07,0,-0.006,-0.006,0.002
-9.0820e-07,-0.004,-0.01,-0.006,0.006
-9.0800e-07,-0.004,0.006,-0.002,0.002
-9.0780e-07,-0.004,-0.002,0.002,0.006
-9.0760e-07,0,-0.01,-0.01,0.01
-9.0740e-07,-0.008,-0.01,-0.002,0.002
-9.0720e-07,0,0.002,-0.01,0.01
-9.0700e-07,-0.008,-0.014,0.006,0.006
-9.0680e-07,0,-0.002,0.002,0.002
-9.0660e-07,-0.008,-0.01,-0.002,-0.002
-9.0640e-07,0,-0.006,-0.01,0.002
-9.0620e-07,-0.004,-0.006,-0.002,0.006
-9.0600e-07,-0.004,-0.006,-0.006,0.006
-9.0580e-07,-0.012,-0.01,0.006,-0.002
-9.0560e-07,-0.008,0.002,-0.01,-0.002
-9.0540e-07,-0.012,-0.01,-0.002,0.002
-9.0520e-07,0.004,-0.01,-0.006,0.01
-9.0500e-07,-0.004,-0.014,-0.002,0.006
-9.0480e-07,-0.004,-0.01,-0.002,0.002
-9.0460e-07,-0.004,-0.006,0.002,0.01
-9.0440e-07,-0.004,-0.006,-0.002,0.01
-9.0420e-07,-0.008,-0.01,-0.002,0.006
-9.0400e-07,0.004,-0.006,0.002,0.01
-9.0380e-07,-0.004,0.002,-0.002,0.006
-9.0360e-07,0,-0.006,-0.01,0.006
-9.0340e-07,-0.004,-0.006,-0.006,0.006
-9.0320e-07,-0.004,-0.002,-0.006,0.002
-9.0300e-07,-0.012,-0.01,-0.006,0.002
-9.0280e-07,-0.004,-0.006,-0.002,0.002
-9.0260e-07,0,-0.01,-0.002,0.006
-9.0240e-07,-0.008,-0.01,-0.002,0.006
-9.0220e-07,-0.008,-0.006,-0.006,0.01
-9.0200e-07,0,-0.006,-0.006,0.01
-9.0180e-07,-0.012,-0.006,0.002,0.01
-9.0160e-07,0,-0.01,-0.006,0.006
-9.0140e-07,-0.012,-0.014,-0.01,0.002
-9.0120e-07,-0.008,-0.006,-0.006,0.006
-9.0100e-07,-0.012,-0.01,-0.002,0.01
-9.0080e-07,-0.004,-0.002,-0.006,0.002
-9.0060e-07,-0.004,-0.006,-0.002,0.006
-9.0040e-07,0,-0.002,-0.01,0.006
-9.0020e-07,-0.004,-0.014,-0.006,0.01
-9.0000e-07,0.004,0.002,-0.014,0.01
-8.9980e-07,0,-0.006,-0.006,0.006
-8.9960e-07,0.004,-0.002,-0.002,0.006
-8.9940e-07,-0.004,-0.006,-0.01,0.01
-8.9920e-07,-0.004,-0.002,-0.006,0.01
-8.9900e-07,-0.004,-0.006,-0.002,0.006
-8.9880e-07,0,0.002,-0.002,-0.002
-8.9860e-07,-0.02,-0.006,-0.002,0.006
-8.9840e-07,-0.008,-0.006,-0.006,0.006
-8.9820e-07,-0.008,-0.006,-0.006,0.006
-8.9800e-07,0,-0.006,-0.006,0.002
-8.9780e-07,0,-0.002,-0.006,0.002
-8.9760e-07,0.004,-0.006,-0.006,0.006
-8.9740e-07,-0.004,-0.006,-0.006,0.01
-8.9720e-07,-0.008,-0.002,-0.01,0.006
-8.9700e-07,-0.012,-0.01,-0.006,0.006
-8.9680e-07,-0.004,-0.002,-0.006,0.002
-8.9660e-07,-0.004,-0.006,-0.006,0.006
-8.9640e-07,0,-0.006,-0.002,-0.006
-8.9620e-07,-0.008,-0.01,-0.002,0.002
-8.9600e-07,-0.004,-0.01,-0.002,-0.002
-8.9580e-07,-0.004,-0.01,0.002,0.006
-8.9560e-07,0,-0.01,-0.006,0.002
-8.9540e-07,-0.008,-0.01,-0.002,-0.006
-8.9520e-07,0,-0.006,-0.006,0.006
-8.9500e-07,-0.008,-0.01,-0.002,0.002
-8.9480e-07,0.004,-0.002,-0.006,0.006
-8.9460e-07,0,-0.006,-0.006,0.002
-8.9440e-07,0,-0.01,-0.018,0.002
-8.9420e-07,-0.004,-0.01,-0.002,0.002
-8.9400e-07,-0.004,-0.002,-0.002,0.006
-8.9380e-07,-0.004,-0.002,-0.006,0.006
-8.9360e-07,0.004,0.002,-0.006,0.006
-8.9340e-07,0,-0.01,-0.002,0.01
-8.9320e-07,0.008,-0.01,-0.002,0.01
-8.9300e-07,0,-0.006,-0.002,0.006
-8.9280e-07,0.004,-0.006,-0.014,-0.002
-8.9260e-07,0,-0.01,-0.002,-0.002
-8.9240e-07,0,-0.006,-0.006,0.002
-8.9220e-07,-0.016,-0.006,-0.006,0.006
-8.9200e-07,-0.008,-0.01,-0.006,0.006
